module go-api-skeleton

go 1.14

require (
	github.com/alecthomas/template v0.0.0-20190718012654-fb15b899a751
	github.com/badoux/checkmail v0.0.0-20181210160741-9661bd69e9ad
	github.com/cpuguy83/go-md2man/v2 v2.0.0 // indirect
	github.com/dgrijalva/jwt-go v3.2.0+incompatible
	github.com/gin-contrib/static v0.0.0-20191128031702-f81c604d8ac2
	github.com/gin-gonic/contrib v0.0.0-20191209060500-d6e26eeaa607
	github.com/gin-gonic/gin v1.5.0
	github.com/go-gomail/gomail v0.0.0-20160411212932-81ebce5c23df
	github.com/go-openapi/spec v0.19.7 // indirect
	github.com/go-openapi/swag v0.19.8 // indirect
	github.com/go-sql-driver/mysql v1.5.0
	github.com/gorilla/mux v1.7.4
	github.com/jinzhu/gorm v1.9.12
	github.com/joho/godotenv v1.3.0
	github.com/mailru/easyjson v0.7.1 // indirect
	github.com/matcornic/hermes/v2 v2.1.0
	github.com/myesui/uuid v1.0.0 // indirect
	github.com/pkg/errors v0.9.1 // indirect
	github.com/stretchr/testify v1.4.0
	github.com/swaggo/files v0.0.0-20190704085106-630677cd5c14
	github.com/swaggo/gin-swagger v1.2.0
	github.com/swaggo/swag v1.6.5
	github.com/twinj/uuid v1.0.0
	github.com/urfave/cli v1.22.3 // indirect
	golang.org/x/crypto v0.0.0-20191205180655-e7c4368fe9dd
	golang.org/x/net v0.0.0-20200301022130-244492dfa37a // indirect
	golang.org/x/tools v0.0.0-20200308013534-11ec41452d41 // indirect
	gopkg.in/yaml.v2 v2.2.8 // indirect
)
